Pipeline-Trace.vcd
$date
     Sep 19, 2001       23:37:48
$end

$version
         SystemC 2.0 Beta-1 --- Sep 14 2001 18:29:50
                   ALL RIGHTS RESERVED
$end

$timescale
     1 ns
$end

$scope module SystemC $end
$var wire   32  aaa  from_wb_2_if.insn       $end
$var wire   32  aab  from_wb_2_if.format       $end
$var wire   32  aac  from_wb_2_if.opcode       $end
$var wire   32  aad  from_wb_2_if.pc       $end
$var wire   32  aae  from_wb_2_if.npc       $end
$var wire   32  aaf  from_wb_2_if.delayed_pc       $end
$var wire   32  aag  from_wb_2_if.A       $end
$var wire   32  aah  from_wb_2_if.B       $end
$var wire   32  aai  from_wb_2_if.rd       $end
$var wire   32  aaj  from_wb_2_if.imm       $end
$var wire   32  aak  from_wb_2_if.alu_output       $end
$var wire   32  aal  from_wb_2_if.r31_output       $end
$var wire   32  aam  from_wb_2_if.lmb       $end
$var wire   32  aan  from_if_2_id.pc       $end
$var wire   32  aao  from_if_2_id.insn       $end
$var wire   32  aap  from_if_2_id.delayed_pc       $end
$var wire   32  aaq  from_id_2_ex.insn       $end
$var wire   32  aar  from_id_2_ex.format       $end
$var wire   32  aas  from_id_2_ex.opcode       $end
$var wire   32  aat  from_id_2_ex.pc       $end
$var wire   32  aau  from_id_2_ex.npc       $end
$var wire   32  aav  from_id_2_ex.delayed_pc       $end
$var wire   32  aaw  from_id_2_ex.A       $end
$var wire   32  aax  from_id_2_ex.B       $end
$var wire   32  aay  from_id_2_ex.rd       $end
$var wire   32  aaz  from_id_2_ex.imm       $end
$var wire   32  aba  from_id_2_ex.alu_output       $end
$var wire   32  abb  from_id_2_ex.r31_output       $end
$var wire   32  abc  from_id_2_ex.lmb       $end
$var wire   32  abd  from_ex_2_mem.insn       $end
$var wire   32  abe  from_ex_2_mem.format       $end
$var wire   32  abf  from_ex_2_mem.opcode       $end
$var wire   32  abg  from_ex_2_mem.pc       $end
$var wire   32  abh  from_ex_2_mem.npc       $end
$var wire   32  abi  from_ex_2_mem.delayed_pc       $end
$var wire   32  abj  from_ex_2_mem.A       $end
$var wire   32  abk  from_ex_2_mem.B       $end
$var wire   32  abl  from_ex_2_mem.rd       $end
$var wire   32  abm  from_ex_2_mem.imm       $end
$var wire   32  abn  from_ex_2_mem.alu_output       $end
$var wire   32  abo  from_ex_2_mem.r31_output       $end
$var wire   32  abp  from_ex_2_mem.lmb       $end
$var wire   32  abq  from_mem_2_wb.insn       $end
$var wire   32  abr  from_mem_2_wb.format       $end
$var wire   32  abs  from_mem_2_wb.opcode       $end
$var wire   32  abt  from_mem_2_wb.pc       $end
$var wire   32  abu  from_mem_2_wb.npc       $end
$var wire   32  abv  from_mem_2_wb.delayed_pc       $end
$var wire   32  abw  from_mem_2_wb.A       $end
$var wire   32  abx  from_mem_2_wb.B       $end
$var wire   32  aby  from_mem_2_wb.rd       $end
$var wire   32  abz  from_mem_2_wb.imm       $end
$var wire   32  aca  from_mem_2_wb.alu_output       $end
$var wire   32  acb  from_mem_2_wb.r31_output       $end
$var wire   32  acc  from_mem_2_wb.lmb       $end
$upscope $end
$enddefinitions  $end

$comment
All initial values are dumped below at time 0 sec = 0 timescale units.
$end

$dumpvars
b0 aaa
b0 aab
b1000000011110110011101011000 aac
b0 aad
b0 aae
b0 aaf
b0 aag
b0 aah
b0 aai
b0 aaj
b0 aak
b0 aal
b0 aam
b0 aan
b0 aao
b0 aap
b0 aaq
b0 aar
b1000000011110110011101011000 aas
b0 aat
b0 aau
b0 aav
b0 aaw
b0 aax
b0 aay
b0 aaz
b0 aba
b0 abb
b0 abc
b0 abd
b0 abe
b1000000011110110011101011000 abf
b0 abg
b0 abh
b0 abi
b0 abj
b0 abk
b0 abl
b0 abm
b0 abn
b0 abo
b0 abp
b0 abq
b0 abr
b1000000011110110011101011000 abs
b0 abt
b0 abu
b0 abv
b0 abw
b0 abx
b0 aby
b0 abz
b0 aca
b0 acb
b0 acc
$end

#1
b100000000000100000000000000010 aao

#2
b100000000000100000000000000010 aaq
b1 aar
b100 aau
b10 aay
b10 aaz

#3
b100000000000100000000000000010 abd
b1 abe
b100 abh
b10 abl
b10 abm
b10 abn

#4
b100000000000100000000000000010 aaa
b1 aab
b100 aae
b10 aai
b10 aaj
b10 aak
b100000000000100000000000000010 abq
b1 abr
b100 abu
b10 aby
b10 abz
b10 aca

#6
b100 aan
b100000000000110000000000000011 aao

#7
b100000000000110000000000000011 aaq
b100 aat
b1000 aau
b11 aay
b11 aaz

#8
b100000000000110000000000000011 abd
b100 abg
b1000 abh
b11 abl
b11 abm
b11 abn

#9
b100000000000110000000000000011 aaa
b100 aad
b1000 aae
b11 aai
b11 aaj
b11 aak
b100000000000110000000000000011 abq
b100 abt
b1000 abu
b11 aby
b11 abz
b11 aca

#11
b1000 aan
b10000110010000000100000 aao

#12
b10000110010000000100000 aaq
b11 aar
b1000 aat
b1100 aau
b10 aaw
b11 aax
b100 aay
b0 aaz

#13
b10000110010000000100000 abd
b11 abe
b1000 abg
b1100 abh
b10 abj
b11 abk
b100 abl
b0 abm
b101 abn

#14
b10000110010000000100000 aaa
b11 aab
b1000 aad
b1100 aae
b10 aag
b11 aah
b100 aai
b0 aaj
b101 aak
b10000110010000000100000 abq
b11 abr
b1000 abt
b1100 abu
b10 abw
b11 abx
b100 aby
b0 abz
b101 aca

#16
b1100 aan
b10101100000000000000000000000000 aao

#17
b10101100000000000000000000000000 aaq
b1 aar
b1100 aat
b10000 aau
b0 aaw
b0 aax
b0 aay

#18
b10101100000000000000000000000000 abd
b1 abe
b1100 abg
b10000 abh
b0 abj
b0 abk
b0 abl
b0 abn

#19
b10101100000000000000000000000000 aaa
b1 aab
b1100 aad
b10000 aae
b0 aag
b0 aah
b0 aai
b0 aak
b10101100000000000000000000000000 abq
b1 abr
b1100 abt
b10000 abu
b0 abw
b0 abx
b0 aby
b0 aca

#21
b10000 aan
b10101100000000100000000000000100 aao

#22
b10101100000000100000000000000100 aaq
b10000 aat
b10100 aau
b10 aax
b10 aay
b100 aaz

#23
b10101100000000100000000000000100 abd
b10000 abg
b10100 abh
b10 abk
b10 abl
b100 abm
b100 abn

#24
b10101100000000100000000000000100 aaa
b10000 aad
b10100 aae
b10 aah
b10 aai
b100 aaj
b100 aak
b10101100000000100000000000000100 abq
b10000 abt
b10100 abu
b10 abx
b10 aby
b100 abz
b100 aca

#26
b10100 aan
b10101100000000110000000000001000 aao

#27
b10101100000000110000000000001000 aaq
b10100 aat
b11000 aau
b11 aax
b11 aay
b1000 aaz

#28
b10101100000000110000000000001000 abd
b10100 abg
b11000 abh
b11 abk
b11 abl
b1000 abm
b1000 abn

#29
b10101100000000110000000000001000 aaa
b10100 aad
b11000 aae
b11 aah
b11 aai
b1000 aaj
b1000 aak
b10101100000000110000000000001000 abq
b10100 abt
b11000 abu
b11 abx
b11 aby
b1000 abz
b1000 aca

#31
b11000 aan
b10101100000001000000000000001100 aao

#32
b10101100000001000000000000001100 aaq
b11000 aat
b11100 aau
b101 aax
b100 aay
b1100 aaz

#33
b10101100000001000000000000001100 abd
b11000 abg
b11100 abh
b101 abk
b100 abl
b1100 abm
b1100 abn

#34
b10101100000001000000000000001100 aaa
b11000 aad
b11100 aae
b101 aah
b100 aai
b1100 aaj
b1100 aak
b10101100000001000000000000001100 abq
b11000 abt
b11100 abu
b101 abx
b100 aby
b1100 abz
b1100 aca

#36
b11100 aan
b111100000000101101111010101101 aao

#37
b111100000000101101111010101101 aaq
b11100 aat
b100000 aau
b10 aax
b10 aay
b11111111111111111101111010101101 aaz

#38
b111100000000101101111010101101 abd
b11100 abg
b100000 abh
b10 abk
b10 abl
b11111111111111111101111010101101 abm
b11011110101011010000000000000000 abn

#39
b111100000000101101111010101101 aaa
b11100 aad
b100000 aae
b10 aah
b10 aai
b11111111111111111101111010101101 aaj
b11011110101011010000000000000000 aak
b111100000000101101111010101101 abq
b11100 abt
b100000 abu
b10 abx
b10 aby
b11111111111111111101111010101101 abz
b11011110101011010000000000000000 aca

#41
b100000 aan
b100100010000101011111011101111 aao

#42
b100100010000101011111011101111 aaq
b100000 aat
b100100 aau
b11011110101011010000000000000000 aaw
b11011110101011010000000000000000 aax
b11111111111111111011111011101111 aaz

#43
b100100010000101011111011101111 abd
b100000 abg
b100100 abh
b11011110101011010000000000000000 abj
b11011110101011010000000000000000 abk
b11111111111111111011111011101111 abm
b11011110101011011011111011101111 abn

#44
b100100010000101011111011101111 aaa
b100000 aad
b100100 aae
b11011110101011010000000000000000 aag
b11011110101011010000000000000000 aah
b11111111111111111011111011101111 aaj
b11011110101011011011111011101111 aak
b100100010000101011111011101111 abq
b100000 abt
b100100 abu
b11011110101011010000000000000000 abw
b11011110101011010000000000000000 abx
b11111111111111111011111011101111 abz
b11011110101011011011111011101111 aca

#46
b100100 aan
b100000000000110000000000000100 aao

#47
b100000000000110000000000000100 aaq
b100100 aat
b101000 aau
b0 aaw
b11 aax
b11 aay
b100 aaz

#48
b100000000000110000000000000100 abd
b100100 abg
b101000 abh
b0 abj
b11 abk
b11 abl
b100 abm
b100 abn

#49
b100000000000110000000000000100 aaa
b100100 aad
b101000 aae
b0 aag
b11 aah
b11 aai
b100 aaj
b100 aak
b100000000000110000000000000100 abq
b100100 abt
b101000 abu
b0 abw
b11 abx
b11 aby
b100 abz
b100 aca

#51
b101000 aan
b10101100010000110000000000000000 aao

#52
b10101100010000110000000000000000 aaq
b101000 aat
b101100 aau
b11011110101011011011111011101111 aaw
b100 aax
b0 aaz

#53
b10101100010000110000000000000000 abd
b101000 abg
b101100 abh
b11011110101011011011111011101111 abj
b100 abk
b0 abm
b11011110101011011011111011101111 abn

#54
b10101100010000110000000000000000 aaa
b101000 aad
b101100 aae
b11011110101011011011111011101111 aag
b100 aah
b0 aaj
b11011110101011011011111011101111 aak
b10101100010000110000000000000000 abq
b101000 abt
b101100 abu
b11011110101011011011111011101111 abw
b100 abx
b0 abz
b11011110101011011011111011101111 aca

#56
b101100 aan
b101000011000110000000000000001 aao

#57
b101000011000110000000000000001 aaq
b101100 aat
b110000 aau
b100 aaw
b1 aaz

#58
b101000011000110000000000000001 abd
b101100 abg
b110000 abh
b100 abj
b1 abm
b11 abn

#59
b101000011000110000000000000001 aaa
b101100 aad
b110000 aae
b100 aag
b1 aaj
b11 aak
b101000011000110000000000000001 abq
b101100 abt
b110000 abu
b100 abw
b1 abz
b11 aca

#61
b110000 aan
b10100011000001111111111110100 aao

#62
b10100011000001111111111110100 aaq
b110000 aat
b110100 aau
b11 aaw
b0 aax
b0 aay
b11111111111111111111111111110100 aaz

#63
b10100011000001111111111110100 abd
b110000 abg
b110100 abh
b11 abj
b0 abk
b0 abl
b11111111111111111111111111110100 abm
b101000 abn

#64
b10100011000001111111111110100 aaa
b110000 aad
b110100 aae
b11 aag
b0 aah
b0 aai
b11111111111111111111111111110100 aaj
b101000 aak
b10100011000001111111111110100 abq
b110000 abt
b110100 abu
b11 abw
b0 abx
b0 aby
b11111111111111111111111111110100 abz
b101000 aca

#66
b110100 aan
b100000010000100000000000000100 aao
b101000 aap

#67
b100000010000100000000000000100 aaq
b110100 aat
b111000 aau
b101000 aav
b11011110101011011011111011101111 aaw
b11011110101011011011111011101111 aax
b10 aay
b100 aaz

#68
b100000010000100000000000000100 abd
b110100 abg
b111000 abh
b101000 abi
b11011110101011011011111011101111 abj
b11011110101011011011111011101111 abk
b10 abl
b100 abm
b11011110101011011011111011110011 abn

#69
b100000010000100000000000000100 aaa
b110100 aad
b111000 aae
b101000 aaf
b11011110101011011011111011101111 aag
b11011110101011011011111011101111 aah
b10 aai
b100 aaj
b11011110101011011011111011110011 aak
b100000010000100000000000000100 abq
b110100 abt
b111000 abu
b101000 abv
b11011110101011011011111011101111 abw
b11011110101011011011111011101111 abx
b10 aby
b100 abz
b11011110101011011011111011110011 aca

#71
b101000 aan
b10101100010000110000000000000000 aao
b0 aap

#72
b10101100010000110000000000000000 aaq
b101000 aat
b101100 aau
b0 aav
b11011110101011011011111011110011 aaw
b11 aax
b11 aay
b0 aaz

#73
b10101100010000110000000000000000 abd
b101000 abg
b101100 abh
b0 abi
b11011110101011011011111011110011 abj
b11 abk
b11 abl
b0 abm

#74
b10101100010000110000000000000000 aaa
b101000 aad
b101100 aae
b0 aaf
b11011110101011011011111011110011 aag
b11 aah
b11 aai
b0 aaj
b10101100010000110000000000000000 abq
b101000 abt
b101100 abu
b0 abv
b11011110101011011011111011110011 abw
b11 abx
b11 aby
b0 abz

#76
b101100 aan
b101000011000110000000000000001 aao

#77
b101000011000110000000000000001 aaq
b101100 aat
b110000 aau
b11 aaw
b1 aaz

#78
b101000011000110000000000000001 abd
b101100 abg
b110000 abh
b11 abj
b1 abm
b10 abn

#79
b101000011000110000000000000001 aaa
b101100 aad
b110000 aae
b11 aag
b1 aaj
b10 aak
b101000011000110000000000000001 abq
b101100 abt
b110000 abu
b11 abw
b1 abz
b10 aca

#81
b110000 aan
b10100011000001111111111110100 aao

#82
b10100011000001111111111110100 aaq
b110000 aat
b110100 aau
b10 aaw
b0 aax
b0 aay
b11111111111111111111111111110100 aaz

#83
b10100011000001111111111110100 abd
b110000 abg
b110100 abh
b10 abj
b0 abk
b0 abl
b11111111111111111111111111110100 abm
b101000 abn

#84
b10100011000001111111111110100 aaa
b110000 aad
b110100 aae
b10 aag
b0 aah
b0 aai
b11111111111111111111111111110100 aaj
b101000 aak
b10100011000001111111111110100 abq
b110000 abt
b110100 abu
b10 abw
b0 abx
b0 aby
b11111111111111111111111111110100 abz
b101000 aca

#86
b110100 aan
b100000010000100000000000000100 aao
b101000 aap

#87
b100000010000100000000000000100 aaq
b110100 aat
b111000 aau
b101000 aav
b11011110101011011011111011110011 aaw
b11011110101011011011111011110011 aax
b10 aay
b100 aaz

#88
b100000010000100000000000000100 abd
b110100 abg
b111000 abh
b101000 abi
b11011110101011011011111011110011 abj
b11011110101011011011111011110011 abk
b10 abl
b100 abm
b11011110101011011011111011110111 abn

#89
b100000010000100000000000000100 aaa
b110100 aad
b111000 aae
b101000 aaf
b11011110101011011011111011110011 aag
b11011110101011011011111011110011 aah
b10 aai
b100 aaj
b11011110101011011011111011110111 aak
b100000010000100000000000000100 abq
b110100 abt
b111000 abu
b101000 abv
b11011110101011011011111011110011 abw
b11011110101011011011111011110011 abx
b10 aby
b100 abz
b11011110101011011011111011110111 aca

#91
b101000 aan
b10101100010000110000000000000000 aao
b0 aap

#92
b10101100010000110000000000000000 aaq
b101000 aat
b101100 aau
b0 aav
b11011110101011011011111011110111 aaw
b10 aax
b11 aay
b0 aaz

#93
b10101100010000110000000000000000 abd
b101000 abg
b101100 abh
b0 abi
b11011110101011011011111011110111 abj
b10 abk
b11 abl
b0 abm

#94
b10101100010000110000000000000000 aaa
b101000 aad
b101100 aae
b0 aaf
b11011110101011011011111011110111 aag
b10 aah
b11 aai
b0 aaj
b10101100010000110000000000000000 abq
b101000 abt
b101100 abu
b0 abv
b11011110101011011011111011110111 abw
b10 abx
b11 aby
b0 abz

#96
b101100 aan
b101000011000110000000000000001 aao

#97
b101000011000110000000000000001 aaq
b101100 aat
b110000 aau
b10 aaw
b1 aaz

#98
b101000011000110000000000000001 abd
b101100 abg
b110000 abh
b10 abj
b1 abm
b1 abn

#99
b101000011000110000000000000001 aaa
b101100 aad
b110000 aae
b10 aag
b1 aaj
b1 aak
b101000011000110000000000000001 abq
b101100 abt
b110000 abu
b10 abw
b1 abz
b1 aca

#101
b110000 aan
b10100011000001111111111110100 aao

#102
b10100011000001111111111110100 aaq
b110000 aat
b110100 aau
b1 aaw
b0 aax
b0 aay
b11111111111111111111111111110100 aaz

#103
b10100011000001111111111110100 abd
b110000 abg
b110100 abh
b1 abj
b0 abk
b0 abl
b11111111111111111111111111110100 abm
b101000 abn

#104
b10100011000001111111111110100 aaa
b110000 aad
b110100 aae
b1 aag
b0 aah
b0 aai
b11111111111111111111111111110100 aaj
b101000 aak
b10100011000001111111111110100 abq
b110000 abt
b110100 abu
b1 abw
b0 abx
b0 aby
b11111111111111111111111111110100 abz
b101000 aca

#106
b110100 aan
b100000010000100000000000000100 aao
b101000 aap

#107
b100000010000100000000000000100 aaq
b110100 aat
b111000 aau
b101000 aav
b11011110101011011011111011110111 aaw
b11011110101011011011111011110111 aax
b10 aay
b100 aaz

#108
b100000010000100000000000000100 abd
b110100 abg
b111000 abh
b101000 abi
b11011110101011011011111011110111 abj
b11011110101011011011111011110111 abk
b10 abl
b100 abm
b11011110101011011011111011111011 abn

#109
b100000010000100000000000000100 aaa
b110100 aad
b111000 aae
b101000 aaf
b11011110101011011011111011110111 aag
b11011110101011011011111011110111 aah
b10 aai
b100 aaj
b11011110101011011011111011111011 aak
b100000010000100000000000000100 abq
b110100 abt
b111000 abu
b101000 abv
b11011110101011011011111011110111 abw
b11011110101011011011111011110111 abx
b10 aby
b100 abz
b11011110101011011011111011111011 aca

#111
b101000 aan
b10101100010000110000000000000000 aao
b0 aap

#112
b10101100010000110000000000000000 aaq
b101000 aat
b101100 aau
b0 aav
b11011110101011011011111011111011 aaw
b1 aax
b11 aay
b0 aaz

#113
b10101100010000110000000000000000 abd
b101000 abg
b101100 abh
b0 abi
b11011110101011011011111011111011 abj
b1 abk
b11 abl
b0 abm

#114
b10101100010000110000000000000000 aaa
b101000 aad
b101100 aae
b0 aaf
b11011110101011011011111011111011 aag
b1 aah
b11 aai
b0 aaj
b10101100010000110000000000000000 abq
b101000 abt
b101100 abu
b0 abv
b11011110101011011011111011111011 abw
b1 abx
b11 aby
b0 abz

#116
b101100 aan
b101000011000110000000000000001 aao

#117
b101000011000110000000000000001 aaq
b101100 aat
b110000 aau
b1 aaw
b1 aaz

#118
b101000011000110000000000000001 abd
b101100 abg
b110000 abh
b1 abj
b1 abm
b0 abn

#119
b101000011000110000000000000001 aaa
b101100 aad
b110000 aae
b1 aag
b1 aaj
b0 aak
b101000011000110000000000000001 abq
b101100 abt
b110000 abu
b1 abw
b1 abz
b0 aca

#121
b110000 aan
b10100011000001111111111110100 aao

#122
b10100011000001111111111110100 aaq
b110000 aat
b110100 aau
b0 aaw
b0 aax
b0 aay
b11111111111111111111111111110100 aaz

#123
b10100011000001111111111110100 abd
b110000 abg
b110100 abh
b0 abj
b0 abk
b0 abl
b11111111111111111111111111110100 abm
b110100 abn

#124
b10100011000001111111111110100 aaa
b110000 aad
b110100 aae
b0 aag
b0 aah
b0 aai
b11111111111111111111111111110100 aaj
b110100 aak
b10100011000001111111111110100 abq
b110000 abt
b110100 abu
b0 abw
b0 abx
b0 aby
b11111111111111111111111111110100 abz
b110100 aca

#126
b110100 aan
b100000010000100000000000000100 aao
b110100 aap

#127
b100000010000100000000000000100 aaq
b110100 aat
b111000 aau
b110100 aav
b11011110101011011011111011111011 aaw
b11011110101011011011111011111011 aax
b10 aay
b100 aaz

#128
b100000010000100000000000000100 abd
b110100 abg
b111000 abh
b110100 abi
b11011110101011011011111011111011 abj
b11011110101011011011111011111011 abk
b10 abl
b100 abm
b11011110101011011011111011111111 abn

#129
b100000010000100000000000000100 aaa
b110100 aad
b111000 aae
b110100 aaf
b11011110101011011011111011111011 aag
b11011110101011011011111011111011 aah
b10 aai
b100 aaj
b11011110101011011011111011111111 aak
b100000010000100000000000000100 abq
b110100 abt
b111000 abu
b110100 abv
b11011110101011011011111011111011 abw
b11011110101011011011111011111011 abx
b10 aby
b100 abz
b11011110101011011011111011111111 aca

#131
b0 aap

#132
b0 aav
b11011110101011011011111011111111 aaw
b11011110101011011011111011111111 aax

#133
b0 abi
b11011110101011011011111011111111 abj
b11011110101011011011111011111111 abk
b11011110101011011011111100000011 abn

#134
b0 aaf
b11011110101011011011111011111111 aag
b11011110101011011011111011111111 aah
b11011110101011011011111100000011 aak
b0 abv
b11011110101011011011111011111111 abw
b11011110101011011011111011111111 abx
b11011110101011011011111100000011 aca

#136
b111000 aan
b0 aao

#137
b0 aaq
b11 aar
b111000 aat
b111100 aau
b0 aaw
b0 aax
b0 aay
b0 aaz

#138
b0 abd
b11 abe
b111000 abg
b111100 abh
b0 abj
b0 abk
b0 abl
b0 abm
b0 abn

#139
b0 aaa
b11 aab
b111000 aad
b111100 aae
b0 aag
b0 aah
b0 aai
b0 aaj
b0 aak
b0 abq
b11 abr
b111000 abt
b111100 abu
b0 abw
b0 abx
b0 aby
b0 abz
b0 aca

#141
b111100 aan

#142
b111100 aat
b1000000 aau

#143
b111100 abg
b1000000 abh

#144
b111100 aad
b1000000 aae
b111100 abt
b1000000 abu

#146
b1000000 aan

#147
b1000000 aat
b1000100 aau

#148
b1000000 abg
b1000100 abh

#149
b1000000 aad
b1000100 aae
b1000000 abt
b1000100 abu

